<?xml version="1.0" encoding="UTF-8" standalone="no"?>
<svg
   viewBox="0 0 1000 1000"
   preserveAspectRatio="none"
   version="1.1"
   id="svg3"
   sodipodi:docname="dessin-look.svg"
   inkscape:version="1.1.2 (b8e25be833, 2022-02-05)"
   xmlns:inkscape="http://www.inkscape.org/namespaces/inkscape"
   xmlns:sodipodi="http://sodipodi.sourceforge.net/DTD/sodipodi-0.dtd"
   xmlns="http://www.w3.org/2000/svg"
   xmlns:svg="http://www.w3.org/2000/svg">
  <defs
     id="defs7" />
  <sodipodi:namedview
     id="namedview5"
     pagecolor="#ffffff"
     bordercolor="#666666"
     borderopacity="1.0"
     inkscape:pageshadow="2"
     inkscape:pageopacity="0.0"
     inkscape:pagecheckerboard="0"
     showgrid="false"
     inkscape:zoom="0.376"
     inkscape:cx="372.34043"
     inkscape:cy="397.60638"
     inkscape:window-width="1920"
     inkscape:window-height="941"
     inkscape:window-x="0"
     inkscape:window-y="34"
     inkscape:window-maximized="1"
     inkscape:current-layer="svg3" />
  <path
     id="sonic-crowd-network"
     d="M 500 0 C 500 500 500 500 500 500 S 617 544 471 355 S 477 654 617 544 S 396 726 477 654 S 349 527 396 726 S 237 770 349 527 S 500 1000 237 770 C 500 500 500 500 500 1000"
     style="fill:none;stroke:#000000;stroke-opacity:1" />
</svg>
